module gitlab.com/fuadhs/gozk

require (
	github.com/canhlinh/go-binary-pack v0.0.0-20181203110405-72348cf47f32
	github.com/canhlinh/log4go v0.0.0-20171123040613-fb8d218825e0
	github.com/certifi/gocertifi v0.0.0-20200922220541-2c3bb06c6054 // indirect
	github.com/davecgh/go-spew v1.1.1 // indirect
	github.com/getsentry/raven-go v0.2.0 // indirect
	github.com/peterbourgon/g2s v0.0.0-20170223122336-d4e7ad98afea // indirect
	github.com/pkg/errors v0.9.1 // indirect
	github.com/stretchr/testify v1.3.0
)

go 1.13
